Andorra,AD,321
United Arab Emirates,AE,1286
Antigua & Barbuda,AG,44
Anguilla,AI,13
Albania,AL,344
Armenia,AM,80
Angola,AO,51
Argentina,AR,1713
American Samoa,AS,1
Austria,AT,2646
Australia,AU,6504
Aruba,AW,48
Azerbaijan,AZ,226
Bosnia & Herzegovina,BA,180
Barbados,BB,106
Bangladesh,BD,113
Belgium,BE,829
Burkina Faso,BF,9
Bulgaria,BG,1159
Bahrain,BH,158
Burundi,BI,9
Benin,BJ,11
Caribbean Netherlands,BK,17
St. Barthélemy,BL,6
Bermuda,BM,20
Brunei,BN,40
Bolivia,BO,182
Brazil,BR,5928
Bahamas,BS,108
Bhutan,BT,2
Botswana,BW,33
Belarus,BY,75
Belize,BZ,78
Curaçao,C0,51
Canada,CA,3675
Congo (DRC),CD,14
Central African Republic,CF,1
Congo - Brazzaville,CG,8
Switzerland,CH,1667
Ivory Coast,CI,21
Cook Islands,CK,56
Chile,CL,751
Cameroon,CM,8
China,CN,19427
Colombia,CO,1623
Costa Rica,CR,570
Cuba,CU,484
Cape Verde,CV,80
Cyprus,CY,543
Czech Republic,CZ,1050
Germany,DE,7872
Djibouti,DJ,2
Denmark,DK,325
Dominica,DM,2
Dominican Republic,DO,403
Algeria,DZ,140
Ecuador,EC,251
Estonia,EE,129
Egypt,EG,824
Spain,ES,14641
Ethiopia,ET,60
Finland,FI,348
Fiji,FJ,162
Faroe Islands,FO,4
France,FR,10708
Gabon,GA,7
United Kingdom,GB,2
Grenada,GD,25
Georgia,GE,250
French Guiana,GF,1
Ghana,GH,115
Gibraltar,GI,6
Gambia,GM,32
Guinea,GN,8
Guadeloupe,GP,33
Equatorial Guinea,GQ,5
Greece,GR,7850
Guatemala,GT,124
Guam,GU,37
Guinea-Bissau,GW,7
Guyana,GY,3
Hong Kong – China,HK,694
Honduras,HN,51
Croatia,HR,1823
Haiti,HT,24
Hungary,HU,687
Indonesia,ID,9850
Ireland,IE,1529
Israel,IL,517
India,IN,6827
Iraq,IQ,3
Iceland,IS,243
Italy,IT,18194
Jamaica,JM,201
Jordan,JO,236
Japan,JP,9849
Kenya,KE,451
Kyrgyzstan,KG,33
Cambodia,KH,1082
Comoros,KM,3
St. Kitts & Nevis,KN,17
South Korea,KR,2456
Kosovo,KV,16
Kuwait,KW,119
Cayman Islands,KY,23
Kazakhstan,KZ,95
Laos,LA,348
Lebanon,LB,180
St. Lucia,LC,45
Liechtenstein,LI,4
Sri Lanka,LK,888
Lesotho,LS,6
Lithuania,LT,161
Luxembourg,LU,72
Latvia,LV,163
Libya,LY,13
Morocco,MA,1629
Monaco,MC,14
Moldova,MD,63
Montenegro,ME,277
Madagascar,MG,51
Macedonia (FYROM),MK,148
Mali,ML,11
Myanmar (Burma),MM,396
Mongolia,MN,24
Macau - China,MO,81
Northern Mariana Islands,MP,37
Martinique,MQ,36
Mauritania,MR,6
Malta,MT,250
Mauritius,MU,230
Maldives,MV,358
Malawi,MW,23
Mexico,MX,4375
Malaysia,MY,4717
Mozambique,MZ,54
Namibia,NA,185
New Caledonia,NC,11
Niger,NE,8
Nigeria,NG,524
Nicaragua,NI,76
Netherlands,NL,1066
Norway,NO,486
Nepal,NP,528
Niue,NU,1
Northern Cyprus,NY,94
New Zealand,NZ,2327
Oman,OM,175
Panama,PA,166
Peru,PE,714
French Polynesia,PF,50
Papua New Guinea,PG,10
Philippines,PH,3121
Pakistan,PK,32
Poland,PL,1483
Puerto Rico,PR,107
Portugal,PT,2926
Palau,PW,3
Paraguay,PY,95
Qatar,QA,174
Réunion,RE,50
Romania,RO,845
Serbia,RS,264
Russia,RU,2145
Rwanda,RW,74
Saudi Arabia,SA,1085
Solomon Islands,SB,2
Seychelles,SC,142
Sudan,SD,4
Sweden,SE,683
Sint Maarten,SF,36
Singapore,SG,576
Slovenia,SI,329
Slovakia,SK,180
Sierra Leone,SL,7
San Marino,SM,11
Senegal,SN,83
Suriname,SR,21
São Tomé & Príncipe,ST,11
El Salvador,SV,48
Swaziland,SZ,13
Turks & Caicos Islands,TC,40
Chad,TD,6
Togo,TG,9
Thailand,TH,11247
Tajikistan,TJ,8
Tunisia,TN,458
Tonga,TO,6
Turkey,TR,6153
Trinidad & Tobago,TT,48
Taiwan – China,TW,2699
Tanzania,TZ,291
Ukraine,UA,447
Uganda,UG,229
United Kingdom,UK,8365
United States,US,46240
Uruguay,UY,244
Uzbekistan,UZ,78
St. Vincent & Grenadines,VC,19
Venezuela,VE,167
British Virgin Islands,VG,15
U.S. Virgin Islands,VI,56
Vietnam,VN,5079
Vanuatu,VU,45
Samoa,WS,29
South Africa,ZA,2001
Zambia,ZM,30
Zimbabwe,ZW,50
