{CCON}
N:PMI:1:101263:GAR1::H:17499::20180415:20181031:N:EUR:SC:NOR:M:N:N:0:14:B:N:U:5::N:N:MjAxODA0MDE=:P::N:N
{/CCON}
{CNHA}
STU:C3:2:1:2:2:0:0:1:
{/CNHA}
{CNCT}
20180221:20181231:DBL:SU:::(N,0.000,0.000,0,RO,21.530)(N,0.000,0.000,0,RO,21.530)(N,0.000,0.000,0,RO,21.530)(N,0.000,0.000,0,RO,21.530)(N,0.000,0.000,0,RO,21.530)(N,0.000,0.000,0,RO,21.530)(N,0.000,0.000,0,RO,42.940)
{/CNCT}
{CNSR}
20180221:20181231:HB:Y:7.63:::::::Y:Y:Y:Y:Y:Y:Y:0.0:::
{/CNSR}
{CNSU}
20180221:20181231:20160221::DN:N:Y:N:-30:N:-6.73::A::::1:1:0:5:::::Y:Y:Y:Y:Y:Y:Y:::
{/CNSU}
{CNPV}
{/CNPV}
{CNEM}
{/CNEM}
{CNIN}
{/CNIN}